<?xml version="1.0" encoding="UTF-8" standalone="no"?>
<!-- Created with Inkscape (http://www.inkscape.org/) -->

<svg
   xmlns:dc="http://purl.org/dc/elements/1.1/"
   xmlns:cc="http://creativecommons.org/ns#"
   xmlns:rdf="http://www.w3.org/1999/02/22-rdf-syntax-ns#"
   xmlns:svg="http://www.w3.org/2000/svg"
   xmlns="http://www.w3.org/2000/svg"
   xmlns:sodipodi="http://sodipodi.sourceforge.net/DTD/sodipodi-0.dtd"
   xmlns:inkscape="http://www.inkscape.org/namespaces/inkscape"
   version="1.1"
   id="svg2"
   width="72"
   height="72"
   viewBox="0 0 72 72"
   sodipodi:docname="question-mark.svg"
   inkscape:version="0.92.5 (2060ec1f9f, 2020-04-08)">
  <metadata
     id="metadata8">
    <rdf:RDF>
      <cc:Work
         rdf:about="">
        <dc:format>image/svg+xml</dc:format>
        <dc:type
           rdf:resource="http://purl.org/dc/dcmitype/StillImage" />
        <dc:title></dc:title>
      </cc:Work>
    </rdf:RDF>
  </metadata>
  <defs
     id="defs6" />
  <sodipodi:namedview
     pagecolor="#ffffff"
     bordercolor="#666666"
     borderopacity="1"
     objecttolerance="10"
     gridtolerance="10"
     guidetolerance="10"
     inkscape:pageopacity="0"
     inkscape:pageshadow="2"
     inkscape:window-width="1848"
     inkscape:window-height="1053"
     id="namedview4"
     showgrid="false"
     inkscape:zoom="3.2777778"
     inkscape:cx="-0.61016949"
     inkscape:cy="23.79661"
     inkscape:window-x="72"
     inkscape:window-y="27"
     inkscape:window-maximized="1"
     inkscape:current-layer="svg2" />
  <path
     inkscape:connector-curvature="0"
     id="path4751"
     d="M 28.757075,67.152386 C 25.16933,63.187973 27.926833,56.981127 33.27584,56.981127 c 5.1213,0 7.791893,6.911139 3.997506,10.345012 -2.415166,2.185696 -6.455603,2.103261 -8.516271,-0.173753 z m 0,-16 c -1.183571,-1.30783 -1.654988,-3.684877 -1.654988,-8.345012 0,-7.514737 1.187427,-9.157641 7.428869,-10.278454 2.514711,-0.451582 5.162692,-1.939354 7.356721,-4.133383 2.836787,-2.836787 3.309373,-3.899912 2.740737,-6.165537 -0.965367,-3.84633 -2.221106,-5.077143 -6.48259,-6.353915 -4.795057,-1.436634 -9.697026,0.803558 -10.663559,4.873231 -1.410223,5.937865 -7.189171,8.310328 -10.72519,4.40307 -3.568428,-3.943068 -1.466501,-11.495534 4.708159,-16.9169565 4.533798,-3.9807277 9.643119,-5.5843706 16.08909,-5.0498205 11.227592,0.9310792 18.530451,8.408078 19.355717,19.817262 0.722293,9.985604 -4.107611,16.949568 -14.261158,20.562352 -2.061104,0.733371 -3.157172,1.865683 -3.387971,3.5 -0.773233,5.475358 -7.040557,7.914046 -10.503837,4.087163 z"
     style="fill:#0000ff;fill-opacity:1" />
</svg>
